…
    ## Warning: There were 6 warnings in `summarise()`.
    ## The first warning was:
    ## ℹ In argument: `price_range = max(original_price, na.rm = TRUE) -
    ##   min(original_price, na.rm = TRUE)`.
    ## ℹ In group 40: `release_year = 2021`.
    ## Caused by warning in `max()`:
    ## ! no non-missing arguments to max; returning -Inf
    ## ℹ Run `dplyr::last_dplyr_warnings()` to see the 5 remaining warnings.

``` r
q1_summary  
```

    ## # A tibble: 43 × 6
    ##    release_year     n price_range mean_price median_price max_price
    ##           <int> <int>       <dbl>      <dbl>        <dbl>     <dbl>
    ##  1         2025     1       -Inf      NaN           NA      -Inf   
    ##  2         2023     1          0        2.99         2.99      2.99
    ##  3         2022     3          0        0            0         0   
    ##  4         2021     2       -Inf      NaN           NA      -Inf   
    ##  5         2020    24         50       28.7         16.0      60.0 
    ##  6         2019  4806        625.      16.2          4.99    625.  
    ##  7         2018  9738        625.      13.2          4.99    625.  
    ##  8         2017  7279     650560      104.           4.99 650560   
    ##  9         2016  5326        598       11.6          4.99    598   
    ## 10         2015  3249        502.      12.0          4.99    502.  
    ## # ℹ 33 more rows
…
